#
# mutt configuration for tommy@tommylincoln.net
#
#   currently not used - imap, smtp external

# Receive Options - Built-in IMAP
#set imap_user=tommy@tommylincoln.net
#set imap_pass=$my_pw_tommylincoln-tommy
#set folder = imaps://gator3186.hostgator.com:465

# Receive Options - External IMAP
set folder = ${HOME}/Mail/tommy@tommylincoln.net

# Receive Options - All
set spoolfile = +Inbox
set postponed = +Drafts
set record = +Sent
#mailboxes +inbox

# Send Options
#set smtp_url=smtps://tommy:$my_pw_tommy-tommylincoln@gator3186.hostgator.com:465
#set envelope_from_address=tommy@tommylincoln.net
#set record = +Sent
# If we don't want to manually store outgoing mail, either
#   becausse it's already being done
#unset record

# Connection Options
#set ssl_force_tls = yes

# Send Options - External SMTP
set sendmail="/usr/bin/msmtp"

# Send Options - All
set realname="Tommy Lincoln"
set from=tommy@tommylincoln.net
set signature=$my_cfgdir/signature.tommy@tommylincoln.net

# Hook
account-hook $folder "set imap_user=tommy@tommylincoln.net imap_pass=$my_pw_tommylincoln-tommy"

# vi:ft=muttrc
